<svg xmlns="http://www.w3.org/2000/svg" xmlns:xlink="http://www.w3.org/1999/xlink" width="11.5" height="11.5" viewBox="0 0 11.5 11.5">
  <defs>
    <clipPath id="clip-path">
      <rect width="11.5" height="11.5" fill="none"/>
    </clipPath>
  </defs>
  <g id="icons_plus" data-name="icons / plus" clip-path="url(#clip-path)">
    <g id="icons_plus-2" data-name="icons / plus" transform="translate(0.556 0.556)">
      <path id="Shape" d="M0,0H10.387" transform="translate(0 5.194)" fill="none" stroke="#929498" stroke-linecap="round" stroke-linejoin="round" stroke-miterlimit="10" stroke-width="1.5"/>
    </g>
  </g>
</svg>
