<?xml version="1.0" encoding="utf-8"?>
<!-- Generator: Adobe Illustrator 23.0.3, SVG Export Plug-In . SVG Version: 6.00 Build 0)  -->
<svg version="1.1" id="Layer_1" xmlns="http://www.w3.org/2000/svg" xmlns:xlink="http://www.w3.org/1999/xlink" x="0px" y="0px"
	 viewBox="0 0 320 512" style="enable-background:new 0 0 320 512;" xml:space="preserve">
<style type="text/css">
	.st0{fill:#FFFFFF;}
</style>
<path class="st0" d="M41,288h238c21.4,0,32.1,25.9,17,41L177,448c-9.4,9.4-24.6,9.4-33.9,0L24,329C8.9,313.9,19.6,288,41,288z
	 M296,183L177,64c-9.4-9.4-24.6-9.4-33.9,0L24,183c-15.1,15.1-4.4,41,17,41h238C300.4,224,311.1,198.1,296,183z"/>
</svg>
